\relax 
\@writefile{toc}{\contentsline {section}{\numberline {1}Introduction}{1}}
\@writefile{toc}{\contentsline {paragraph}{Didactic}{1}}
\@writefile{toc}{\contentsline {paragraph}{Feedbacks}{1}}
\@writefile{toc}{\contentsline {section}{\numberline {2}Context}{2}}
\@writefile{toc}{\contentsline {paragraph}{}{2}}
\@writefile{lof}{\contentsline {figure}{\numberline {1}{\ignorespaces Material environment and interactions between actors.\relax }}{2}}
\providecommand*\caption@xref[2]{\@setref\relax\@undefined{#1}}
\newlabel{fig:first1}{{1}{2}}
\@writefile{toc}{\contentsline {section}{\numberline {3}Material}{2}}
\@writefile{toc}{\contentsline {paragraph}{}{2}}
\@writefile{lof}{\contentsline {figure}{\numberline {2}{\ignorespaces Informatic Environment for Human Learning.\relax }}{2}}
\newlabel{fig:iehlpetit}{{2}{2}}
\@writefile{lof}{\contentsline {figure}{\numberline {3}{\ignorespaces Buchette Project.\relax }}{2}}
\newlabel{fig:dispo1}{{3}{2}}
\@writefile{toc}{\contentsline {subsection}{\numberline {3.1}Tangible environment}{2}}
\@writefile{toc}{\contentsline {paragraph}{}{2}}
\@writefile{lof}{\contentsline {figure}{\numberline {4}{\ignorespaces Tangible system. 3 scales, containers, units, bundles, elastic bands and Raspberry Pi\relax }}{3}}
\@writefile{toc}{\contentsline {paragraph}{Constraints of the scales \\}{3}}
\@writefile{toc}{\contentsline {paragraph}{Connection to others devices \\}{3}}
\@writefile{toc}{\contentsline {subsection}{\numberline {3.2}Exercises}{3}}
\@writefile{toc}{\contentsline {paragraph}{}{3}}
\@writefile{toc}{\contentsline {subsection}{\numberline {3.3}Application}{3}}
\@writefile{toc}{\contentsline {paragraph}{}{3}}
\@writefile{toc}{\contentsline {subsection}{\numberline {3.4}Feedback interactions}{4}}
\@writefile{toc}{\contentsline {paragraph}{}{4}}
\@writefile{toc}{\contentsline {subsection}{\numberline {3.5}Simulation}{4}}
\@writefile{toc}{\contentsline {paragraph}{}{4}}
\@writefile{lof}{\contentsline {figure}{\numberline {5}{\ignorespaces Local Network.\relax }}{5}}
\newlabel{fig:wifi1}{{5}{5}}
\@writefile{toc}{\contentsline {section}{\numberline {4}Improvement}{5}}
\@writefile{toc}{\contentsline {paragraph}{ }{5}}
\@writefile{toc}{\contentsline {section}{\numberline {5}Evaluation of the project}{5}}
\@writefile{toc}{\contentsline {subsection}{\numberline {5.1}Protocol}{5}}
\@writefile{toc}{\contentsline {paragraph}{ }{5}}
\@writefile{toc}{\contentsline {subsection}{\numberline {5.2}Experiments}{5}}
\@writefile{toc}{\contentsline {paragraph}{ }{5}}
\@writefile{toc}{\contentsline {section}{\numberline {6}Further evaluations}{5}}
\@writefile{toc}{\contentsline {paragraph}{ }{5}}
\@writefile{toc}{\contentsline {subsection}{\numberline {6.1}Usability criterion}{5}}
\@writefile{toc}{\contentsline {subsection}{\numberline {6.2}Utility criterion}{5}}
\bibstyle{named}
\bibdata{thiriat}
\bibcite{luengo-et-al:scheme}{\citeauthoryear {Vanda Luengo \bgroup \em  et al.\egroup }{2011}}
\bibcite{bednarz-janvier:kl-one}{\citeauthoryear {Bednarz and Janvier}{1984}}
\bibcite{bednarz-janvier:kl-one}{\citeauthoryear {Bednarz and Janvier}{1984}}
\bibcite{tempier:kl-one}{\citeauthoryear {Frederick Tempier}{2010}}
\bibcite{bisseret-et-al:scheme}{\citeauthoryear {André Bisseret \bgroup \em  et al.\egroup }{1999}}
\bibcite{MeTAH:kl-one}{\citeauthoryear {MeTAH Team}{2015}}
\bibcite{mounier:kl-one}{\citeauthoryear {Eric Mounier}{2010}}
\bibcite{uttal-et-al:scheme}{\citeauthoryear {Viviane Guéraud \bgroup \em  et al.\egroup }{2014}}
\bibcite{bouhineau-et-al:scheme}{\citeauthoryear {Denis Bouhineau \bgroup \em  et al.\egroup }{2013}}
\@writefile{toc}{\contentsline {section}{\numberline {7}Conclusion}{6}}
\@writefile{toc}{\contentsline {section}{\numberline {A}Screen of the application}{7}}
\newlabel{sec:app}{{A}{7}}
\@writefile{lof}{\contentsline {figure}{\numberline {6}{\ignorespaces Initial activity\relax }}{7}}
\newlabel{fig:first}{{6}{7}}
\@writefile{lof}{\contentsline {figure}{\numberline {7}{\ignorespaces Checking of initial Conditions\relax }}{8}}
\newlabel{fig:check}{{7}{8}}
\@writefile{lof}{\contentsline {figure}{\numberline {8}{\ignorespaces exercise\relax }}{8}}
\newlabel{fig:exercise}{{8}{8}}
\@writefile{toc}{\contentsline {section}{\numberline {B}Format of traces send by the Raspberry Pi}{8}}
\newlabel{sec:trace}{{B}{8}}
\@writefile{lof}{\contentsline {figure}{\numberline {9}{\ignorespaces Final screen\relax }}{9}}
\newlabel{fig:end}{{9}{9}}
\@writefile{lof}{\contentsline {figure}{\numberline {10}{\ignorespaces Error screens\relax }}{9}}
\newlabel{fig:error}{{10}{9}}
\@writefile{toc}{\contentsline {section}{\numberline {C}Format of JSON object send by the Raspberry Pi}{9}}
\newlabel{sec:json}{{C}{9}}
\@writefile{toc}{\contentsline {section}{\numberline {D}Format of exercise}{10}}
\newlabel{sec:exercise}{{D}{10}}
\@writefile{toc}{\contentsline {section}{\numberline {E}Schemas}{10}}
\@writefile{lof}{\contentsline {figure}{\numberline {11}{\ignorespaces Material environment and interactions between actors.\relax }}{10}}
\newlabel{fig:material}{{11}{10}}
\@writefile{lof}{\contentsline {figure}{\numberline {12}{\ignorespaces Informatic Environment for Human Learning.\relax }}{11}}
\newlabel{fig:iehl}{{12}{11}}
\@writefile{lof}{\contentsline {figure}{\numberline {13}{\ignorespaces Buchette Project.\relax }}{11}}
\newlabel{fig:dispo}{{13}{11}}
\@writefile{lof}{\contentsline {figure}{\numberline {14}{\ignorespaces Local Network.\relax }}{12}}
\newlabel{fig:wifi}{{14}{12}}
